Library/Bee/artifacts/mvdfrm/Unity.2D.Animation.Runtime.ref.dll_AF1E063246525303.mvfrm
Library/Bee/artifacts/mvdfrm/Unity.2D.Common.Editor.ref.dll_EC1424A67E931775.mvfrm
Library/Bee/artifacts/mvdfrm/Unity.2D.Common.Runtime.ref.dll_7880D8CD8CDAACE6.mvfrm
Library/Bee/artifacts/mvdfrm/Unity.2D.Sprite.Editor.ref.dll_0C752155078C8A7B.mvfrm
Library/Bee/artifacts/mvdfrm/Unity.Burst.ref.dll_A26B5A59C5195CA5.mvfrm
Library/Bee/artifacts/mvdfrm/Unity.InternalAPIEditorBridge.001.ref.dll_4A1E043EC010701B.mvfrm
Library/Bee/artifacts/mvdfrm/Unity.InternalAPIEngineBridge.001.ref.dll_3C98BCE9251F5760.mvfrm
Library/Bee/artifacts/mvdfrm/Unity.Mathematics.ref.dll_E696BBA688F8A36B.mvfrm
Library/Bee/artifacts/mvdfrm/UnityEditor.TestRunner.ref.dll_47F943A8BCEAAC06.mvfrm
Library/Bee/artifacts/mvdfrm/UnityEditor.UI.ref.dll_66C1A76E74A457C8.mvfrm
Library/Bee/artifacts/mvdfrm/UnityEngine.TestRunner.ref.dll_14178E56E8AE09F1.mvfrm
Library/Bee/artifacts/mvdfrm/UnityEngine.UI.ref.dll_23277DC97AC68033.mvfrm
Library/Bee/artifacts/mvdfrm/UnityEditor.Graphs.dll_56A2EC1E58CD7229.mvfrm
Library/Bee/artifacts/mvdfrm/UnityEditor.CoreModule.dll_7D6AE63BAB3A9EF7.mvfrm
Library/Bee/artifacts/mvdfrm/UnityEditor.DeviceSimulatorModule.dll_691FD64B3522017A.mvfrm
Library/Bee/artifacts/mvdfrm/UnityEditor.DiagnosticsModule.dll_5CD69C521DE64548.mvfrm
Library/Bee/artifacts/mvdfrm/UnityEditor.GraphViewModule.dll_AEB8631A1A09901F.mvfrm
Library/Bee/artifacts/mvdfrm/UnityEditor.PackageManagerUIModule.dll_A49267232EE1AD93.mvfrm
Library/Bee/artifacts/mvdfrm/UnityEditor.PresetsUIModule.dll_6A1E9BFC1C61E824.mvfrm
Library/Bee/artifacts/mvdfrm/UnityEditor.QuickSearchModule.dll_E7E61D5F76BD41A1.mvfrm
Library/Bee/artifacts/mvdfrm/UnityEditor.SceneTemplateModule.dll_4C5359F027F66E42.mvfrm
Library/Bee/artifacts/mvdfrm/UnityEditor.TextCoreFontEngineModule.dll_5B72B1398D380E95.mvfrm
Library/Bee/artifacts/mvdfrm/UnityEditor.TextCoreTextEngineModule.dll_A35AE7AB1CBBC7B3.mvfrm
Library/Bee/artifacts/mvdfrm/UnityEditor.UIBuilderModule.dll_034110368CC20953.mvfrm
Library/Bee/artifacts/mvdfrm/UnityEditor.UIElementsModule.dll_DED594ECB17040D3.mvfrm
Library/Bee/artifacts/mvdfrm/UnityEditor.UIElementsSamplesModule.dll_0D18184CFE6C6ECA.mvfrm
Library/Bee/artifacts/mvdfrm/UnityEditor.UIServiceModule.dll_3C33219975F9596D.mvfrm
Library/Bee/artifacts/mvdfrm/UnityEditor.UnityConnectModule.dll_1B6E9CD4EEAFC92D.mvfrm
Library/Bee/artifacts/mvdfrm/UnityEditor.dll_70A1784490F438EE.mvfrm
Library/Bee/artifacts/mvdfrm/UnityEngine.AIModule.dll_3969FCAC0849B46B.mvfrm
Library/Bee/artifacts/mvdfrm/UnityEngine.ARModule.dll_F2DCC1AF65671334.mvfrm
Library/Bee/artifacts/mvdfrm/UnityEngine.AccessibilityModule.dll_7EF8C587286C95DF.mvfrm
Library/Bee/artifacts/mvdfrm/UnityEngine.AndroidJNIModule.dll_5D1E7DBFFA8FAFA9.mvfrm
Library/Bee/artifacts/mvdfrm/UnityEngine.AnimationModule.dll_7D3DDF42F46664C5.mvfrm
Library/Bee/artifacts/mvdfrm/UnityEngine.AssetBundleModule.dll_2BCF5050D923F693.mvfrm
Library/Bee/artifacts/mvdfrm/UnityEngine.AudioModule.dll_C0B618B13B258C77.mvfrm
Library/Bee/artifacts/mvdfrm/UnityEngine.ClothModule.dll_279E75AC15426B5B.mvfrm
Library/Bee/artifacts/mvdfrm/UnityEngine.ClusterInputModule.dll_9B0B11EAA0379BF3.mvfrm
Library/Bee/artifacts/mvdfrm/UnityEngine.ClusterRendererModule.dll_6ECC98BCA4DD0EFE.mvfrm
Library/Bee/artifacts/mvdfrm/UnityEngine.CoreModule.dll_A08BB98E53400A22.mvfrm
Library/Bee/artifacts/mvdfrm/UnityEngine.CrashReportingModule.dll_69EADCC75DD146FA.mvfrm
Library/Bee/artifacts/mvdfrm/UnityEngine.DSPGraphModule.dll_C9F0A045EE5FA1E0.mvfrm
Library/Bee/artifacts/mvdfrm/UnityEngine.DirectorModule.dll_C49F3EDC7BFED0BF.mvfrm
Library/Bee/artifacts/mvdfrm/UnityEngine.GIModule.dll_D1A645B9A3F89C85.mvfrm
Library/Bee/artifacts/mvdfrm/UnityEngine.GameCenterModule.dll_876BC7DAC0D0A09A.mvfrm
Library/Bee/artifacts/mvdfrm/UnityEngine.GridModule.dll_7DFCD57C6B94A019.mvfrm
Library/Bee/artifacts/mvdfrm/UnityEngine.HotReloadModule.dll_FE869D48CF998047.mvfrm
Library/Bee/artifacts/mvdfrm/UnityEngine.IMGUIModule.dll_F915B81801572058.mvfrm
Library/Bee/artifacts/mvdfrm/UnityEngine.ImageConversionModule.dll_DABE966D2701C6F2.mvfrm
Library/Bee/artifacts/mvdfrm/UnityEngine.InputLegacyModule.dll_BD146B6F7115AC84.mvfrm
Library/Bee/artifacts/mvdfrm/UnityEngine.InputModule.dll_272BE061B15DB11B.mvfrm
Library/Bee/artifacts/mvdfrm/UnityEngine.JSONSerializeModule.dll_DF104EC327A7F669.mvfrm
Library/Bee/artifacts/mvdfrm/UnityEngine.LocalizationModule.dll_D957DC3D37B38EEC.mvfrm
Library/Bee/artifacts/mvdfrm/UnityEngine.NVIDIAModule.dll_1DFC19D56EB6B6CE.mvfrm
Library/Bee/artifacts/mvdfrm/UnityEngine.ParticleSystemModule.dll_BCFD2613CBE2D288.mvfrm
Library/Bee/artifacts/mvdfrm/UnityEngine.PerformanceReportingModule.dll_C0DA20B1670640E1.mvfrm
Library/Bee/artifacts/mvdfrm/UnityEngine.Physics2DModule.dll_C9E3CF3395635C5A.mvfrm
Library/Bee/artifacts/mvdfrm/UnityEngine.PhysicsModule.dll_74B0986998CE7C28.mvfrm
Library/Bee/artifacts/mvdfrm/UnityEngine.ProfilerModule.dll_F6E57813155857CC.mvfrm
Library/Bee/artifacts/mvdfrm/UnityEngine.RuntimeInitializeOnLoadManagerInitializerModule.dll_DC2D072D43D08123.mvfrm
Library/Bee/artifacts/mvdfrm/UnityEngine.ScreenCaptureModule.dll_F8F7FC483C1422CB.mvfrm
Library/Bee/artifacts/mvdfrm/UnityEngine.SharedInternalsModule.dll_5ECFD5429E2FC242.mvfrm
Library/Bee/artifacts/mvdfrm/UnityEngine.SpriteMaskModule.dll_70983A6AE2403614.mvfrm
Library/Bee/artifacts/mvdfrm/UnityEngine.SpriteShapeModule.dll_45307DAB8EC62E9D.mvfrm
Library/Bee/artifacts/mvdfrm/UnityEngine.StreamingModule.dll_31D2CC9343EE1C03.mvfrm
Library/Bee/artifacts/mvdfrm/UnityEngine.SubstanceModule.dll_0E7DE0DC8F411A11.mvfrm
Library/Bee/artifacts/mvdfrm/UnityEngine.SubsystemsModule.dll_DB45A0CCB0881E27.mvfrm
Library/Bee/artifacts/mvdfrm/UnityEngine.TLSModule.dll_E9FE7B43783182FC.mvfrm
Library/Bee/artifacts/mvdfrm/UnityEngine.TerrainModule.dll_8EF713D86E8CC516.mvfrm
Library/Bee/artifacts/mvdfrm/UnityEngine.TerrainPhysicsModule.dll_BD77CEE6E525CD15.mvfrm
Library/Bee/artifacts/mvdfrm/UnityEngine.TextCoreFontEngineModule.dll_D9D22C8CA035CD60.mvfrm
Library/Bee/artifacts/mvdfrm/UnityEngine.TextCoreTextEngineModule.dll_21BA62FE2FB9867E.mvfrm
Library/Bee/artifacts/mvdfrm/UnityEngine.TextRenderingModule.dll_22376E52F34BA2C0.mvfrm
Library/Bee/artifacts/mvdfrm/UnityEngine.TilemapModule.dll_2DF37B598649A61F.mvfrm
Library/Bee/artifacts/mvdfrm/UnityEngine.UIElementsModule.dll_DF840234B3B45A1E.mvfrm
Library/Bee/artifacts/mvdfrm/UnityEngine.UIElementsNativeModule.dll_EF0C1BB8A05A1DB5.mvfrm
Library/Bee/artifacts/mvdfrm/UnityEngine.UIModule.dll_34DD9AD96490BA17.mvfrm
Library/Bee/artifacts/mvdfrm/UnityEngine.UNETModule.dll_33320177A04EFF9B.mvfrm
Library/Bee/artifacts/mvdfrm/UnityEngine.UmbraModule.dll_3B8AC4C9C84C37EA.mvfrm
Library/Bee/artifacts/mvdfrm/UnityEngine.UnityAnalyticsModule.dll_DC9C96DD780A2484.mvfrm
Library/Bee/artifacts/mvdfrm/UnityEngine.UnityConnectModule.dll_08CE20E3E937C9D8.mvfrm
Library/Bee/artifacts/mvdfrm/UnityEngine.UnityCurlModule.dll_B05A8074647A56B2.mvfrm
Library/Bee/artifacts/mvdfrm/UnityEngine.UnityTestProtocolModule.dll_C8DACE3F5867C420.mvfrm
Library/Bee/artifacts/mvdfrm/UnityEngine.UnityWebRequestAssetBundleModule.dll_A3942C87451E0A55.mvfrm
Library/Bee/artifacts/mvdfrm/UnityEngine.UnityWebRequestAudioModule.dll_38D6748FED710B79.mvfrm
Library/Bee/artifacts/mvdfrm/UnityEngine.UnityWebRequestModule.dll_EC5D9E1731F66171.mvfrm
Library/Bee/artifacts/mvdfrm/UnityEngine.UnityWebRequestTextureModule.dll_C4E9362F809DBA6E.mvfrm
Library/Bee/artifacts/mvdfrm/UnityEngine.UnityWebRequestWWWModule.dll_EC7CA85A1F7942EA.mvfrm
Library/Bee/artifacts/mvdfrm/UnityEngine.VFXModule.dll_6ADD13B24E9EEC69.mvfrm
Library/Bee/artifacts/mvdfrm/UnityEngine.VRModule.dll_87AFC15F064B3F8F.mvfrm
Library/Bee/artifacts/mvdfrm/UnityEngine.VehiclesModule.dll_3C62385BF628A05A.mvfrm
Library/Bee/artifacts/mvdfrm/UnityEngine.VideoModule.dll_E5BF9D1BFDB7A81C.mvfrm
Library/Bee/artifacts/mvdfrm/UnityEngine.VirtualTexturingModule.dll_1398D02779089E40.mvfrm
Library/Bee/artifacts/mvdfrm/UnityEngine.WindModule.dll_16DA94B6E476888B.mvfrm
Library/Bee/artifacts/mvdfrm/UnityEngine.XRModule.dll_BA6E84638F858CED.mvfrm
Library/Bee/artifacts/mvdfrm/UnityEngine.dll_A345BF1CEF67C5D3.mvfrm
Library/Bee/artifacts/mvdfrm/UnityEditor.LinuxStandalone.Extensions.dll_C4A231FF866B5C09.mvfrm
Library/Bee/artifacts/mvdfrm/UnityEditor.WebGL.Extensions.dll_AEF85A287E6298A9.mvfrm
Library/Bee/artifacts/mvdfrm/Unity.Burst.Cecil.Mdb.dll_BC9583DA6A430799.mvfrm
Library/Bee/artifacts/mvdfrm/Unity.Burst.Cecil.Pdb.dll_D3E7FC49E8F8091C.mvfrm
Library/Bee/artifacts/mvdfrm/Unity.Burst.Cecil.Rocks.dll_E657530D79F304BC.mvfrm
Library/Bee/artifacts/mvdfrm/Unity.Burst.Cecil.dll_57CF17F35DD14D5C.mvfrm
Library/Bee/artifacts/mvdfrm/Unity.Burst.Unsafe.dll_AF407612AD4B4477.mvfrm
Library/Bee/artifacts/mvdfrm/Unity.Plastic.Antlr3.Runtime.dll_F399CEB63BEEB838.mvfrm
Library/Bee/artifacts/mvdfrm/Unity.Plastic.Newtonsoft.Json.dll_4C00C17EE7F0057D.mvfrm