{
  "BurstVersion": "685f0c65-f2a4-48a7-8ba2-734aa17d6be3",
  "Assemblies": [
    {
      "FullName": "Unity.2D.Animation.Editor, Version=0.0.0.0, Culture=neutral, PublicKeyToken=null",
      "LastWriteTime": "2022-03-30T16:24:57.2357491Z"
    },
    {
      "FullName": "mscorlib, Version=4.0.0.0, Culture=neutral, PublicKeyToken=b77a5c561934e089",
      "LastWriteTime": "2022-02-03T15:27:32.1906909Z"
    },
    {
      "FullName": "Unity.2D.Common.Runtime, Version=0.0.0.0, Culture=neutral, PublicKeyToken=null",
      "LastWriteTime": "2022-03-30T16:24:56.2757453Z"
    },
    {
      "FullName": "UnityEngine.CoreModule, Version=0.0.0.0, Culture=neutral, PublicKeyToken=null",
      "LastWriteTime": "2022-02-03T15:27:38.9507143Z"
    },
    {
      "FullName": "Unity.Mathematics, Version=1.0.0.0, Culture=neutral, PublicKeyToken=null",
      "LastWriteTime": "2022-03-30T16:24:56.0657445Z"
    },
    {
      "FullName": "Unity.Burst, Version=0.0.0.0, Culture=neutral, PublicKeyToken=null",
      "LastWriteTime": "2022-03-30T16:24:55.0224071Z"
    },
    {
      "FullName": "netstandard, Version=2.1.0.0, Culture=neutral, PublicKeyToken=cc7b13ffcd2ddd51",
      "LastWriteTime": "2022-02-03T15:27:32.5573588Z"
    },
    {
      "FullName": "UnityEditor.CoreModule, Version=0.0.0.0, Culture=neutral, PublicKeyToken=null",
      "LastWriteTime": "2022-02-03T15:27:38.9173809Z"
    },
    {
      "FullName": "Unity.2D.SpriteShape.Runtime, Version=0.0.0.0, Culture=neutral, PublicKeyToken=null",
      "LastWriteTime": "2022-03-30T16:24:56.7224138Z"
    },
    {
      "FullName": "mscorlib, Version=0.0.0.0, Culture=neutral, PublicKeyToken=null",
      "LastWriteTime": "2022-02-03T15:27:32.1906909Z"
    },
    {
      "FullName": "UnityEngine.SpriteShapeModule, Version=0.0.0.0, Culture=neutral, PublicKeyToken=null",
      "LastWriteTime": "2022-02-03T15:27:39.1207149Z"
    }
  ],
  "Functions": [
    {
      "FullName": "UnityEditor.U2D.Animation.TriangulationUtility, Unity.2D.Animation.Editor, Version=0.0.0.0, Culture=neutral, PublicKeyToken=null::SubdivideBurst(Unity.Collections.Allocator, UnityEngine.CoreModule, Version=0.0.0.0, Culture=neutral, PublicKeyToken=null|Unity.Mathematics.float2*, Unity.Mathematics, Version=1.0.0.0, Culture=neutral, PublicKeyToken=null|System.Int32, mscorlib, Version=4.0.0.0, Culture=neutral, PublicKeyToken=b77a5c561934e089|Unity.Mathematics.int2*, Unity.Mathematics, Version=1.0.0.0, Culture=neutral, PublicKeyToken=null|System.Int32, mscorlib, Version=4.0.0.0, Culture=neutral, PublicKeyToken=b77a5c561934e089|Unity.Mathematics.float2*, Unity.Mathematics, Version=1.0.0.0, Culture=neutral, PublicKeyToken=null|System.Int32*, mscorlib, Version=4.0.0.0, Culture=neutral, PublicKeyToken=b77a5c561934e089|Unity.Mathematics.int2*, Unity.Mathematics, Version=1.0.0.0, Culture=neutral, PublicKeyToken=null|System.Int32, mscorlib, Version=4.0.0.0, Culture=neutral, PublicKeyToken=b77a5c561934e089|System.Single, mscorlib, Version=4.0.0.0, Culture=neutral, PublicKeyToken=b77a5c561934e089|System.Single, mscorlib, Version=4.0.0.0, Culture=neutral, PublicKeyToken=b77a5c561934e089|System.Int32, mscorlib, Version=4.0.0.0, Culture=neutral, PublicKeyToken=b77a5c561934e089|System.Int32, mscorlib, Version=4.0.0.0, Culture=neutral, PublicKeyToken=b77a5c561934e089|Unity.Mathematics.int3*, Unity.Mathematics, Version=1.0.0.0, Culture=neutral, PublicKeyToken=null)",
      "ModuleOptionsHash": 15221144590354301703,
      "ModuleHash": "f5dee66eaf0eb1fb6e86d46896160b28",
      "LinkName": "4E9252389FAD9FEE",
      "AssemblyDependencyIndices": [
        0,
        1,
        2,
        3,
        4,
        5,
        6,
        7
      ]
    },
    {
      "FullName": "Unity.Burst.Intrinsics.X86, Unity.Burst, Version=0.0.0.0, Culture=neutral, PublicKeyToken=null::DoSetCSRTrampoline(System.Int32, mscorlib, Version=4.0.0.0, Culture=neutral, PublicKeyToken=b77a5c561934e089)",
      "ModuleOptionsHash": 15221144590354301703,
      "ModuleHash": "91fe85bd4f7b38d3cda56ffb21acd8ea",
      "LinkName": "801E9A000BB37B05",
      "AssemblyDependencyIndices": [
        5,
        6,
        1
      ]
    },
    {
      "FullName": "UnityEditor.U2D.Animation.TriangulationUtility, Unity.2D.Animation.Editor, Version=0.0.0.0, Culture=neutral, PublicKeyToken=null::ValidateCollinear(Unity.Mathematics.float2*, Unity.Mathematics, Version=1.0.0.0, Culture=neutral, PublicKeyToken=null|System.Int32, mscorlib, Version=4.0.0.0, Culture=neutral, PublicKeyToken=b77a5c561934e089)",
      "ModuleOptionsHash": 15221144590354301703,
      "ModuleHash": "49e0709fc0c0c91e07dcf8ff161bd201",
      "LinkName": "18887B9C60D739BB",
      "AssemblyDependencyIndices": [
        0,
        4,
        7,
        1,
        6,
        5,
        3
      ]
    },
    {
      "FullName": "Unity.Burst.Intrinsics.X86, Unity.Burst, Version=0.0.0.0, Culture=neutral, PublicKeyToken=null::DoGetCSRTrampoline()",
      "ModuleOptionsHash": 15221144590354301703,
      "ModuleHash": "1879ec442273b13486b7061c3dcf566c",
      "LinkName": "CDCA4A5193BE5947",
      "AssemblyDependencyIndices": [
        5,
        6,
        1
      ]
    },
    {
      "FullName": "UnityEditor.U2D.Animation.TriangulationUtility, Unity.2D.Animation.Editor, Version=0.0.0.0, Culture=neutral, PublicKeyToken=null::TessellateBurst(Unity.Collections.Allocator, UnityEngine.CoreModule, Version=0.0.0.0, Culture=neutral, PublicKeyToken=null|Unity.Mathematics.float2*, Unity.Mathematics, Version=1.0.0.0, Culture=neutral, PublicKeyToken=null|System.Int32, mscorlib, Version=4.0.0.0, Culture=neutral, PublicKeyToken=b77a5c561934e089|Unity.Mathematics.int2*, Unity.Mathematics, Version=1.0.0.0, Culture=neutral, PublicKeyToken=null|System.Int32, mscorlib, Version=4.0.0.0, Culture=neutral, PublicKeyToken=b77a5c561934e089|Unity.Mathematics.float2*, Unity.Mathematics, Version=1.0.0.0, Culture=neutral, PublicKeyToken=null|System.Int32*, mscorlib, Version=4.0.0.0, Culture=neutral, PublicKeyToken=b77a5c561934e089|Unity.Mathematics.int2*, Unity.Mathematics, Version=1.0.0.0, Culture=neutral, PublicKeyToken=null|System.Int32, mscorlib, Version=4.0.0.0, Culture=neutral, PublicKeyToken=b77a5c561934e089|Unity.Mathematics.int3*, Unity.Mathematics, Version=1.0.0.0, Culture=neutral, PublicKeyToken=null)",
      "ModuleOptionsHash": 15221144590354301703,
      "ModuleHash": "39d820a4c3674837498fd0523f60743e",
      "LinkName": "7D2E04AB7759F565",
      "AssemblyDependencyIndices": [
        0,
        1,
        3,
        4,
        6,
        5,
        2,
        7
      ]
    },
    {
      "FullName": "Unity.Jobs.IJobExtensions+JobStruct`1[[UnityEngine.U2D.SpriteShapeGenerator, Unity.2D.SpriteShape.Runtime, Version=0.0.0.0, Culture=neutral, PublicKeyToken=null]], UnityEngine.CoreModule, Version=0.0.0.0, Culture=neutral, PublicKeyToken=null::Execute(UnityEngine.U2D.SpriteShapeGenerator&, Unity.2D.SpriteShape.Runtime, Version=0.0.0.0, Culture=neutral, PublicKeyToken=null|System.IntPtr, mscorlib, Version=4.0.0.0, Culture=neutral, PublicKeyToken=b77a5c561934e089|System.IntPtr, mscorlib, Version=4.0.0.0, Culture=neutral, PublicKeyToken=b77a5c561934e089|Unity.Jobs.LowLevel.Unsafe.JobRanges&, UnityEngine.CoreModule, Version=0.0.0.0, Culture=neutral, PublicKeyToken=null|System.Int32, mscorlib, Version=4.0.0.0, Culture=neutral, PublicKeyToken=b77a5c561934e089)",
      "ModuleOptionsHash": 15221144590354301703,
      "ModuleHash": "fa80bd18e8520849dea31ee2d2aa9b32",
      "LinkName": "104599FDEEB36FAE",
      "AssemblyDependencyIndices": [
        3,
        8,
        9,
        10,
        6,
        1,
        4,
        2
      ]
    }
  ]
}